<svg xmlns="http://www.w3.org/2000/svg" width="9" height="1" viewBox="0 0 9 1">
  <g id="минус" transform="translate(-90.959 -1188.904) rotate(45)">
    <rect id="Rectangle_2225" data-name="Rectangle 2225" width="9" height="1" transform="translate(912.071 770.707) rotate(135)"/>
  </g>
</svg>
