<svg xmlns="http://www.w3.org/2000/svg" width="170" height="170" viewBox="0 0 170 170">
  <g id="_1" data-name="1" transform="translate(-475 -1305)">
    <g id="Ellipse_2" data-name="Ellipse 2" transform="translate(475 1305)" fill="none" stroke="#ff1f35" stroke-width="3">
      <circle cx="85" cy="85" r="85" stroke="none"/>
      <circle cx="85" cy="85" r="83.5" fill="none"/>
    </g>
    <g id="save-money" transform="translate(524.64 1350)">
      <path id="Path_722" data-name="Path 722" d="M191.71,166.406a1.241,1.241,0,0,0-.447-.015,2.962,2.962,0,0,1-2.619-2.937,1.3,1.3,0,1,0-2.605,0,5.573,5.573,0,0,0,4.1,5.366v1.3a1.3,1.3,0,0,0,2.605,0V168.9a5.563,5.563,0,0,0-1.14-11.007,2.958,2.958,0,1,1,2.958-2.958,1.3,1.3,0,1,0,2.605,0,5.573,5.573,0,0,0-4.423-5.445V148.3a1.3,1.3,0,1,0-2.605,0v1.265A5.562,5.562,0,0,0,191.6,160.5a2.956,2.956,0,0,1,.108,5.91Zm0,0" transform="translate(-155.443 -123.063)" fill="#ff1f35"/>
      <path id="Path_723" data-name="Path 723" d="M104.2,125.382a18.89,18.89,0,1,0,18.89-18.89A18.89,18.89,0,0,0,104.2,125.382Zm18.89-16.285A16.285,16.285,0,1,1,106.8,125.382,16.285,16.285,0,0,1,123.085,109.1Zm0,0" transform="translate(-86.927 -89.151)" fill="#ff1f35"/>
      <path id="Path_724" data-name="Path 724" d="M61.47,331.546l-10.2,4.822A8.312,8.312,0,0,0,44.18,332l-9.42-.259a9.95,9.95,0,0,1-4.281-1.106l-.959-.5a16.908,16.908,0,0,0-15.661.017l.06-2.172a1.3,1.3,0,0,0-1.266-1.338l-10.33-.284a1.3,1.3,0,0,0-1.338,1.266L.36,350.292a1.3,1.3,0,0,0,1.266,1.338l10.33.284h.036a1.3,1.3,0,0,0,1.3-1.267l.03-1.085,2.684-1.437a4.6,4.6,0,0,1,3.435-.376l16.025,4.5c.028.008.056.015.085.021a17.153,17.153,0,0,0,3.522.363,17.38,17.38,0,0,0,7.261-1.584,1.21,1.21,0,0,0,.162-.089l23.235-15.029a1.3,1.3,0,0,0,.427-1.735,6.581,6.581,0,0,0-8.69-2.647ZM3,349.061,3.553,329l7.725.212-.552,20.065Zm42.163-.341a14.77,14.77,0,0,1-9.032,1.008l-15.982-4.486a7.2,7.2,0,0,0-5.37.587l-1.371.735.367-13.341a14.32,14.32,0,0,1,14.547-.776l.959.5a12.582,12.582,0,0,0,5.408,1.4l9.421.259a5.714,5.714,0,0,1,5.43,4.553l-14.033-.387a1.3,1.3,0,1,0-.072,2.6l15.486.426h.036a1.3,1.3,0,0,0,1.3-1.267,8.267,8.267,0,0,0-.126-1.69L62.6,333.894l.031-.015a3.98,3.98,0,0,1,4.5.63Zm0,0" transform="translate(0 -273.213)" fill="#ff1f35"/>
      <path id="Path_725" data-name="Path 725" d="M214.808,13.678V1.3a1.3,1.3,0,0,0-2.605,0V13.678a1.3,1.3,0,0,0,2.605,0Zm0,0" transform="translate(-177.347)" fill="#ff1f35"/>
      <path id="Path_726" data-name="Path 726" d="M274.808,47.165V41.3a1.3,1.3,0,1,0-2.605,0v5.862a1.3,1.3,0,1,0,2.605,0Zm0,0" transform="translate(-227.577 -33.487)" fill="#ff1f35"/>
      <path id="Path_727" data-name="Path 727" d="M154.808,47.165V41.3a1.3,1.3,0,1,0-2.605,0v5.862a1.3,1.3,0,0,0,2.605,0Zm0,0" transform="translate(-127.118 -33.487)" fill="#ff1f35"/>
    </g>
  </g>
</svg>
